[gd_scene load_steps=7 format=3 uid="uid://dltpxar10wl71"]

[ext_resource type="Script" path="res://Particles/explosion_small.gd" id="1_jbqqd"]
[ext_resource type="Texture2D" uid="uid://cvx4npkdd0frk" path="res://assets/dot.png" id="2_5sx27"]
[ext_resource type="AudioStream" uid="uid://c78tcf3iopwi" path="res://assets/crack_2.wav" id="2_eja6h"]

[sub_resource type="Curve" id="Curve_4uevg"]
_data = [Vector2(0, 1), 0.0, 0.0, 0, 0, Vector2(0.192612, 1), 0.0, -4.0933, 0, 0, Vector2(1, 0), 0.0, 0.0, 0, 0]
point_count = 3

[sub_resource type="CurveTexture" id="CurveTexture_ln4tx"]
curve = SubResource("Curve_4uevg")

[sub_resource type="ParticleProcessMaterial" id="ParticleProcessMaterial_g62hs"]
particle_flag_disable_z = true
spread = 180.0
initial_velocity_min = 200.0
initial_velocity_max = 400.0
gravity = Vector3(0, 0, 0)
linear_accel_min = -400.0
linear_accel_max = -400.0
alpha_curve = SubResource("CurveTexture_ln4tx")

[node name="ExplosionSmall" type="Node2D"]
script = ExtResource("1_jbqqd")

[node name="BangLines" type="GPUParticles2D" parent="."]
process_mode = 1
emitting = false
amount = 15
process_material = SubResource("ParticleProcessMaterial_g62hs")
lifetime = 0.5
one_shot = true
explosiveness = 1.0
trail_enabled = true

[node name="BangParticles" type="GPUParticles2D" parent="."]
process_mode = 1
emitting = false
amount = 50
process_material = SubResource("ParticleProcessMaterial_g62hs")
texture = ExtResource("2_5sx27")
lifetime = 0.5
one_shot = true
explosiveness = 1.0

[node name="Sound" type="AudioStreamPlayer" parent="."]
stream = ExtResource("2_eja6h")
mix_target = 1
bus = &"Explosions"
