[gd_scene load_steps=4 format=3 uid="uid://d2b6jolmamvge"]

[ext_resource type="Script" path="res://Player/Weapons/laser_turret.gd" id="1_aqaoi"]
[ext_resource type="PackedScene" uid="uid://bwelbrpvrm8nd" path="res://Projectiles/plasma.tscn" id="3_o15wk"]
[ext_resource type="AudioStream" uid="uid://clv77yhpqw4h" path="res://assets/player_laser.wav" id="4_sv8ex"]

[node name="LaserTurret" type="Node2D" groups=["resettable", "upgradeCard"]]
script = ExtResource("1_aqaoi")
weapon_slot = 16
bullet_prefab = ExtResource("3_o15wk")

[node name="Head" type="Line2D" parent="."]
points = PackedVector2Array(-12, -12, -12, -8, -8, -4, -8, 0, -8, 4, -12, 8, -12, 12, 4, 12, 8, 8, 12, 0, 8, -8, 4, -12)
closed = true
width = 2.0
joint_mode = 2

[node name="Barrel1" type="Line2D" parent="."]
position = Vector2(20, 0)
points = PackedVector2Array(0, 0, -8, 0)
width = 4.0
begin_cap_mode = 2
end_cap_mode = 2

[node name="Barrel2" type="Line2D" parent="."]
visible = false
position = Vector2(20, -4)
points = PackedVector2Array(0, 0, -10, 0)
width = 4.0
begin_cap_mode = 2
end_cap_mode = 2

[node name="Barrel3" type="Line2D" parent="."]
visible = false
position = Vector2(20, 4)
points = PackedVector2Array(0, 0, -10, 0)
width = 4.0
begin_cap_mode = 2
end_cap_mode = 2

[node name="Barrel4" type="Line2D" parent="."]
position = Vector2(20, -8)
points = PackedVector2Array(0, 0, -12, 0)
width = 4.0
begin_cap_mode = 2
end_cap_mode = 2

[node name="Barrel5" type="Line2D" parent="."]
position = Vector2(20, 8)
points = PackedVector2Array(0, 0, -12, 0)
width = 4.0
begin_cap_mode = 2
end_cap_mode = 2

[node name="Cooldown" type="Timer" parent="."]
wait_time = 0.25

[node name="ShootAudio" type="AudioStreamPlayer" parent="."]
stream = ExtResource("4_sv8ex")
volume_db = -6.0
pitch_scale = 0.5
max_polyphony = 6
bus = &"Weapons"

[connection signal="timeout" from="Cooldown" to="." method="_on_cooldown_timeout"]
