[gd_scene load_steps=4 format=3 uid="uid://cis2ucb8wlb0v"]

[ext_resource type="Script" path="res://Hazards/asteroid.gd" id="1_0mgei"]
[ext_resource type="PackedScene" uid="uid://bpdwuqax4xe10" path="res://Hazards/asteroid_shape.tscn" id="2_korp0"]

[sub_resource type="CircleShape2D" id="CircleShape2D_aa1qr"]
radius = 32.0

[node name="Asteroid" type="RigidBody2D" groups=["resettable"]]
collision_layer = 1040
collision_mask = 0
script = ExtResource("1_0mgei")
type = 10

[node name="Shape" parent="." instance=ExtResource("2_korp0")]

[node name="Collider" type="CollisionShape2D" parent="."]
shape = SubResource("CircleShape2D_aa1qr")
metadata/_edit_lock_ = true

[node name="Area2D" type="Area2D" parent="."]
collision_layer = 0
collision_mask = 68

[node name="Collider" type="CollisionPolygon2D" parent="Area2D"]
polygon = PackedVector2Array(-16, 0, -12, -4, -8, -12, -4, -12, 0, -16, 8, -12, 8, -8, 12, -4, 16, 4, 12, 12, 4, 16, -4, 8, -8, 12, -16, 8)

[connection signal="body_entered" from="Area2D" to="." method="_on_bullet_entered"]
