[gd_scene load_steps=5 format=3 uid="uid://p5m4u1d5afee"]

[ext_resource type="Script" path="res://Hazards/asteroid.gd" id="1_wgd3c"]
[ext_resource type="PackedScene" uid="uid://bpdwuqax4xe10" path="res://Hazards/asteroid_shape.tscn" id="2_ijya1"]

[sub_resource type="CircleShape2D" id="CircleShape2D_tvoqr"]
radius = 32.0

[sub_resource type="CircleShape2D" id="CircleShape2D_a7ep2"]
radius = 36.0

[node name="Asteroid" type="RigidBody2D" groups=["resettable"]]
collision_layer = 1040
collision_mask = 0
script = ExtResource("1_wgd3c")
type = 2

[node name="Shape" parent="." instance=ExtResource("2_ijya1")]

[node name="Collider" type="CollisionShape2D" parent="."]
shape = SubResource("CircleShape2D_tvoqr")
metadata/_edit_lock_ = true

[node name="Area2D" type="Area2D" parent="."]
collision_layer = 0
collision_mask = 68

[node name="Collider" type="CollisionShape2D" parent="Area2D"]
shape = SubResource("CircleShape2D_a7ep2")

[connection signal="body_entered" from="Area2D" to="." method="_on_bullet_entered"]
