[gd_scene load_steps=5 format=3 uid="uid://cr2d5r2ndeobm"]

[ext_resource type="Script" path="res://Hazards/asteroid.gd" id="1_65332"]
[ext_resource type="PackedScene" uid="uid://bpdwuqax4xe10" path="res://Hazards/asteroid_shape.tscn" id="2_wbvss"]

[sub_resource type="CircleShape2D" id="CircleShape2D_ov2xp"]
radius = 16.0

[sub_resource type="CircleShape2D" id="CircleShape2D_v8tv3"]
radius = 20.0

[node name="Asteroid" type="RigidBody2D" groups=["resettable"]]
collision_layer = 1040
collision_mask = 0
script = ExtResource("1_65332")

[node name="Shape" parent="." instance=ExtResource("2_wbvss")]

[node name="Collider" type="CollisionShape2D" parent="."]
shape = SubResource("CircleShape2D_ov2xp")
metadata/_edit_lock_ = true

[node name="Area2D" type="Area2D" parent="."]
collision_layer = 0
collision_mask = 68

[node name="Collider" type="CollisionShape2D" parent="Area2D"]
shape = SubResource("CircleShape2D_v8tv3")

[connection signal="body_entered" from="Area2D" to="." method="_on_bullet_entered"]
